cve_ent,poblacion,nombre,31-12-2019,01-01-2020,02-01-2020,03-01-2020,04-01-2020,05-01-2020,06-01-2020,07-01-2020,08-01-2020,09-01-2020,10-01-2020,11-01-2020,12-01-2020,13-01-2020,14-01-2020,15-01-2020,16-01-2020,17-01-2020,18-01-2020,19-01-2020,20-01-2020,21-01-2020,22-01-2020,23-01-2020,24-01-2020,25-01-2020,26-01-2020,27-01-2020,28-01-2020,29-01-2020,30-01-2020,31-01-2020,01-02-2020,02-02-2020,03-02-2020,04-02-2020,05-02-2020,06-02-2020,07-02-2020,08-02-2020,09-02-2020,10-02-2020,11-02-2020,12-02-2020,13-02-2020,14-02-2020,15-02-2020,16-02-2020,17-02-2020,18-02-2020,19-02-2020,20-02-2020,21-02-2020,22-02-2020,23-02-2020,24-02-2020,25-02-2020,26-02-2020,27-02-2020,28-02-2020,29-02-2020,01-03-2020,02-03-2020,03-03-2020,04-03-2020,05-03-2020,06-03-2020,07-03-2020,08-03-2020,09-03-2020,10-03-2020,11-03-2020,12-03-2020,13-03-2020,14-03-2020,15-03-2020,16-03-2020,17-03-2020,18-03-2020,19-03-2020,20-03-2020,21-03-2020,22-03-2020,23-03-2020,24-03-2020,25-03-2020,26-03-2020,27-03-2020,28-03-2020,29-03-2020,30-03-2020,31-03-2020,01-04-2020,02-04-2020,03-04-2020,04-04-2020,05-04-2020,06-04-2020,07-04-2020,08-04-2020,09-04-2020,10-04-2020,11-04-2020,12-04-2020,13-04-2020,14-04-2020,15-04-2020,16-04-2020,17-04-2020,18-04-2020,19-04-2020,20-04-2020,21-04-2020,22-04-2020,23-04-2020,24-04-2020,25-04-2020,26-04-2020,27-04-2020,28-04-2020,29-04-2020,30-04-2020,01-05-2020,02-05-2020,03-05-2020,04-05-2020,05-05-2020,06-05-2020,07-05-2020,08-05-2020,09-05-2020,10-05-2020,11-05-2020,12-05-2020,13-05-2020,14-05-2020,15-05-2020,16-05-2020,17-05-2020,18-05-2020,19-05-2020,20-05-2020,21-05-2020,22-05-2020,23-05-2020,24-05-2020,25-05-2020,26-05-2020,27-05-2020,28-05-2020,29-05-2020,30-05-2020,31-05-2020,01-06-2020,02-06-2020,03-06-2020,04-06-2020,05-06-2020,06-06-2020,07-06-2020,08-06-2020,09-06-2020,10-06-2020,11-06-2020,12-06-2020,13-06-2020,14-06-2020,15-06-2020,16-06-2020,17-06-2020,18-06-2020,19-06-2020,20-06-2020,21-06-2020,22-06-2020,23-06-2020,24-06-2020,25-06-2020,26-06-2020,27-06-2020
"01",1434635,"AGUASCALIENTES",0,0,0,0,0,0,0,0,0,1,0,0,1,0,1,2,0,0,0,0,0,0,0,1,1,0,0,0,0,0,0,1,0,0,0,0,0,0,0,0,0,0,0,0,0,0,1,0,1,1,1,1,1,0,0,0,0,0,1,2,0,0,0,2,0,3,2,0,1,0,3,1,4,1,1,9,8,5,17,12,17,12,20,18,33,26,37,36,17,29,38,27,40,41,38,31,12,40,34,31,2,15,22,13,45,41,60,35,22,18,28,82,61,46,90,86,6,23,82,87,113,126,18,17,136,94,76,76,149,36,45,40,125,204,56,63,30,35,32,40,54,70,70,43,46,31,37,69,108,45,23,54,85,50,49,78,44,32,60,91,43,91,112,67,42,62,27,135,66,27,25,29,17,65,48,71,63,6,0,0
"02",3634868,"BAJA CALIFORNIA",0,0,0,2,1,1,3,1,1,3,3,0,0,1,1,7,0,2,0,1,5,3,2,1,2,0,0,3,0,1,1,2,2,0,2,0,4,2,0,0,1,0,1,1,0,0,0,0,1,2,1,0,2,1,2,0,1,0,0,0,1,0,3,5,3,0,0,2,0,5,4,4,5,13,3,2,8,11,26,20,35,18,11,59,44,54,53,56,29,17,50,41,38,34,26,15,8,33,31,25,26,36,14,11,32,42,39,43,43,14,13,50,58,46,39,36,20,13,54,51,56,68,37,16,27,47,33,49,53,54,27,54,82,90,52,64,89,18,12,67,43,52,67,84,56,32,80,124,80,88,65,42,39,116,93,85,101,73,28,24,90,83,79,92,78,43,42,80,91,76,84,61,20,20,65,48,32,27,30,0
"03",804708,"BAJA CALIFORNIA SUR",0,0,0,0,0,0,0,0,0,2,0,0,0,0,0,1,1,0,0,0,1,0,0,0,0,0,0,1,1,0,0,0,0,0,0,0,0,0,0,0,0,1,2,1,1,1,0,0,0,0,0,0,0,0,0,1,1,2,1,0,0,0,1,0,1,2,0,1,0,3,2,1,2,2,1,1,3,3,6,2,6,6,0,11,10,17,14,17,7,10,29,31,29,28,27,21,13,58,34,45,41,18,19,12,43,32,37,23,17,12,9,20,28,13,9,11,7,19,13,19,22,21,12,2,5,23,15,25,24,30,15,5,23,29,9,10,22,9,3,6,17,18,31,35,26,14,36,33,29,30,34,31,53,42,43,33,51,82,52,19,41,44,29,65,91,32,32,49,79,84,71,61,19,22,96,88,48,75,29,1
"04",1000617,"CAMPECHE",0,0,0,0,0,0,0,0,0,0,0,0,0,0,0,0,0,0,0,0,0,0,0,0,0,0,0,0,0,0,0,0,0,0,0,0,0,0,0,0,0,0,0,0,0,0,0,0,0,0,0,1,0,0,0,0,0,1,1,0,0,0,0,0,0,0,0,0,0,0,0,0,0,0,0,1,1,0,0,0,0,0,2,0,2,2,3,5,2,5,6,7,3,7,5,2,1,5,8,6,2,2,2,23,19,10,7,10,5,7,5,22,13,5,7,30,8,7,11,10,7,11,9,8,9,18,7,14,12,10,25,7,16,13,15,21,29,32,6,17,17,15,19,28,20,16,25,40,46,28,80,16,10,48,71,33,23,43,24,50,30,123,38,74,42,5,10,49,59,44,36,42,19,16,34,40,26,32,11,0
"07",5730367,"CHIAPAS",0,0,0,0,0,0,0,0,0,0,0,0,0,0,0,0,0,0,0,0,1,0,0,0,0,0,0,1,0,0,0,0,0,1,0,0,0,0,0,0,0,2,0,0,0,0,0,0,0,0,0,0,0,0,0,0,0,0,0,1,0,0,0,0,0,0,0,0,0,0,0,1,1,2,3,1,2,1,1,2,3,7,1,2,14,8,6,17,7,10,14,19,19,18,14,11,5,10,9,17,4,7,6,5,14,20,14,10,16,11,9,19,35,13,23,22,20,14,15,22,12,14,20,9,11,50,40,24,24,32,21,8,36,21,22,34,44,33,11,40,35,28,43,36,18,17,34,44,31,48,28,24,26,52,35,36,30,38,24,17,25,36,34,35,36,15,9,19,10,28,19,18,11,8,29,28,13,10,5,0
"08",3801487,"CHIHUAHUA",0,0,0,0,0,0,0,0,0,0,0,0,0,0,0,0,0,0,1,0,0,0,2,0,0,0,0,0,0,0,0,0,0,0,0,0,0,0,0,0,0,0,0,0,0,0,0,0,0,0,0,0,0,0,0,0,0,1,0,3,0,0,0,1,0,1,0,1,0,0,1,0,1,1,2,2,0,6,1,7,7,2,6,6,4,18,15,16,7,7,16,14,9,15,10,11,9,19,14,18,18,13,17,15,31,21,28,24,16,12,14,34,31,31,41,38,26,20,57,51,46,46,34,39,18,66,67,78,71,48,35,23,64,71,67,65,72,42,31,74,63,56,65,44,30,25,69,50,81,58,63,25,23,82,67,41,50,44,25,17,47,52,57,38,40,14,20,38,55,50,49,24,18,8,26,17,1,1,0,0
"09",9018645,"DISTRITO FEDERAL",0,0,10,6,1,3,11,6,4,13,14,1,3,10,16,10,10,11,1,6,12,10,8,10,11,2,13,6,9,3,6,4,0,0,0,11,11,2,5,1,5,17,7,3,4,6,2,1,3,3,3,1,6,2,1,7,4,8,12,12,3,3,22,7,14,16,14,6,7,19,27,33,54,49,36,31,46,75,87,92,77,34,19,66,148,149,130,188,67,68,148,147,144,208,250,102,64,231,337,394,291,308,122,101,398,463,402,394,506,124,127,452,469,443,364,462,183,161,544,628,678,850,283,265,299,838,636,878,725,888,321,211,723,810,834,858,855,336,214,930,932,990,909,1024,394,263,1008,923,1067,817,906,472,245,1013,972,1118,1098,1135,416,216,1129,1078,1098,1201,1265,498,352,1357,1278,1284,1168,1151,443,268,982,1131,915,612,246,3
"05",3218720,"COAHUILA",0,0,1,0,1,1,4,0,1,0,0,0,2,2,2,6,2,3,0,1,4,3,5,3,2,0,0,5,5,5,2,5,0,1,2,7,2,4,0,1,0,4,3,1,1,1,1,0,4,6,3,2,0,0,1,4,3,3,5,3,1,1,0,3,2,2,0,1,4,4,6,2,5,3,2,5,8,6,12,11,11,12,14,9,20,41,31,54,21,37,67,51,54,94,117,57,77,134,124,114,73,112,53,30,103,112,82,139,109,40,16,109,82,82,82,119,42,38,94,86,130,154,95,43,52,122,137,71,108,169,79,22,158,177,151,162,187,98,53,261,171,220,189,200,112,67,189,186,185,171,251,175,101,322,332,394,335,416,223,72,274,379,331,226,395,107,70,258,250,211,180,206,134,36,150,188,85,31,0,0
"06",785153,"COLIMA",0,0,0,0,0,0,0,1,0,0,0,0,0,0,0,0,0,0,0,0,0,0,0,0,0,0,0,0,0,0,0,0,0,0,0,0,0,0,0,0,0,0,0,0,0,0,0,0,0,0,0,0,0,0,0,0,0,0,0,0,1,2,0,0,0,1,0,0,0,1,0,3,3,0,0,2,0,0,3,2,0,1,1,6,8,5,4,1,1,3,5,5,8,3,5,0,3,1,3,6,1,1,6,2,4,3,9,2,3,1,7,8,6,6,5,2,0,4,5,4,14,5,2,7,7,7,2,15,10,6,4,8,6,9,7,10,15,8,14,17,15,13,13,13,5,7,13,9,8,15,6,9,9,15,7,11,19,17,11,3,15,11,14,17,12,5,5,10,8,13,19,23,7,5,14,16,14,6,8,0
"10",1868996,"DURANGO",0,0,0,0,2,1,1,1,2,1,1,0,3,0,1,2,0,0,0,4,1,1,1,0,0,1,1,2,3,0,1,0,0,1,2,0,1,0,1,3,0,4,0,1,0,0,0,2,1,1,0,1,0,0,0,1,1,0,1,0,1,0,2,2,1,2,1,0,1,6,0,1,3,1,1,0,0,4,2,6,0,1,0,5,13,8,18,19,3,3,6,11,15,32,12,27,10,21,19,13,5,7,2,3,13,17,17,16,14,5,6,19,33,10,42,25,10,8,13,24,31,40,11,72,25,31,35,32,37,47,12,5,50,39,44,24,59,14,9,27,35,37,63,45,10,11,56,48,55,114,99,61,14,77,122,110,94,139,27,25,130,150,120,174,194,63,26,197,166,93,140,183,32,25,79,103,92,90,11,2
"11",6228175,"GUANAJUATO",0,0,0,1,0,0,0,0,0,0,1,0,0,2,0,0,0,1,1,1,1,1,2,0,0,1,1,0,2,0,0,2,1,0,1,3,1,2,2,0,2,5,2,2,1,0,0,3,1,2,1,0,0,1,0,2,1,1,1,4,3,5,3,1,2,3,0,1,0,3,3,1,8,9,2,3,8,10,13,27,25,40,14,47,55,84,88,72,64,19,85,90,79,98,84,30,17,71,72,83,63,56,54,16,60,76,117,103,156,62,35,172,201,223,230,201,104,38,194,312,332,361,155,74,53,238,228,267,284,281,91,49,317,273,267,318,318,112,50,352,277,253,252,258,101,70,354,293,207,228,220,86,72,238,223,221,339,318,158,89,308,285,257,258,261,94,74,292,277,290,291,265,112,47,246,271,115,23,4,0
"12",3657048,"GUERRERO",0,1,0,0,0,0,0,0,0,0,1,0,0,0,0,0,0,0,0,0,1,0,0,0,0,0,0,0,0,0,0,0,0,0,0,0,0,0,0,0,0,0,1,0,0,0,0,0,0,0,0,0,1,1,0,0,0,0,0,0,0,0,0,1,0,0,0,0,1,3,0,0,0,5,0,1,2,3,2,2,2,0,1,12,6,12,14,18,10,11,27,20,17,17,9,8,4,12,13,14,13,14,9,10,22,17,23,22,20,11,14,30,31,18,17,16,9,17,26,39,27,33,23,43,32,43,41,56,46,52,31,22,65,57,68,42,55,42,32,64,26,31,39,24,22,16,36,28,59,57,60,56,37,67,71,61,59,52,48,24,73,48,55,57,62,44,40,42,62,61,55,83,20,30,81,46,32,7,2,2
"13",3086414,"HIDALGO",0,0,0,1,0,0,0,1,0,2,0,0,0,0,0,1,0,1,0,1,0,0,1,1,0,1,0,0,2,0,2,0,0,0,0,1,1,0,1,0,0,0,2,0,1,1,0,0,0,0,0,0,0,0,0,0,1,1,1,1,2,0,2,0,2,1,1,2,0,2,3,3,4,0,0,0,1,11,2,4,23,1,0,11,16,16,37,34,15,12,22,16,20,15,23,9,6,16,19,16,11,4,1,3,11,18,9,5,15,20,8,17,18,16,31,13,12,5,17,22,12,24,17,10,14,28,38,31,40,41,14,6,37,22,33,58,35,36,14,52,50,40,35,60,14,14,38,41,34,50,50,24,17,46,89,56,56,69,33,20,65,72,73,72,66,21,23,75,62,64,63,63,39,11,49,64,37,34,47,8
"14",8409693,"JALISCO",0,1,0,3,0,2,3,4,3,13,9,3,7,11,10,17,12,15,7,2,12,18,18,8,7,4,5,11,10,9,10,11,3,6,5,7,8,7,3,2,3,9,6,13,11,8,0,6,7,4,7,6,6,2,2,5,2,10,4,5,3,3,12,8,10,3,8,2,2,3,11,8,14,18,5,14,13,37,45,51,39,31,33,89,97,112,76,120,55,66,107,100,88,92,120,113,82,145,118,103,79,76,78,52,111,91,108,105,133,64,33,181,142,199,278,293,125,92,174,127,185,154,96,64,43,177,95,121,159,179,222,85,207,187,192,334,258,145,72,205,166,200,219,217,112,65,241,284,244,263,235,168,90,304,329,260,285,280,131,96,303,294,300,265,230,105,52,218,193,262,232,151,168,45,200,195,145,151,95,4
"15",17427790,"MEXICO",0,0,1,1,1,3,1,5,1,6,7,0,1,2,5,2,5,1,1,1,7,4,8,1,3,0,3,2,2,3,1,1,0,1,0,6,3,5,2,0,0,2,4,3,3,2,0,0,2,0,0,1,3,0,1,2,6,4,2,4,2,2,9,12,9,4,7,1,5,7,9,13,11,24,15,9,18,42,21,44,30,24,14,65,73,80,79,145,65,64,178,124,130,129,155,105,50,130,163,166,90,122,68,62,234,212,191,165,182,83,92,227,186,192,180,262,124,95,227,264,333,448,292,291,274,620,511,699,613,729,284,232,741,754,582,541,513,220,156,537,441,646,496,612,181,175,629,493,640,574,594,271,181,599,528,692,576,620,161,147,607,620,664,694,729,256,222,762,691,807,700,811,243,142,624,402,277,129,88,4
"16",4825401,"MICHOACAN",0,0,0,0,0,0,0,0,0,0,0,0,0,0,1,0,0,1,1,0,0,0,0,1,0,0,0,1,1,0,0,0,0,0,0,0,0,0,0,0,0,0,0,0,0,1,0,0,0,1,0,0,0,0,0,0,0,0,0,0,0,0,0,0,0,0,0,1,0,0,0,1,1,8,1,0,3,4,7,8,7,7,6,12,14,33,19,21,15,10,34,20,29,25,36,22,13,29,25,34,33,25,11,17,46,38,46,82,108,26,21,63,56,43,61,57,51,18,57,70,79,90,38,33,33,78,71,85,70,91,40,32,153,119,121,143,206,72,31,117,155,139,128,149,43,30,171,132,169,208,209,54,27,222,154,168,168,194,91,43,234,226,203,240,334,56,43,360,291,229,275,287,100,36,207,183,15,34,4,1
"17",2044058,"MORELOS",0,0,0,0,0,0,0,1,0,0,0,0,0,1,1,0,0,0,0,0,1,0,1,0,2,0,0,0,0,0,0,1,0,0,0,0,1,0,1,0,0,0,0,0,1,0,0,0,0,0,0,0,0,0,0,0,0,1,0,0,0,1,0,0,0,0,1,0,0,0,1,1,1,0,1,2,0,1,2,6,8,1,2,11,11,13,10,8,7,13,11,15,18,17,13,13,5,21,16,21,12,9,13,8,22,27,22,17,15,5,11,24,23,12,15,12,8,8,13,12,22,23,7,2,10,24,15,44,28,30,12,9,37,35,31,35,56,12,13,51,35,34,38,36,7,15,51,61,38,30,40,6,15,34,25,30,33,35,18,9,48,48,53,66,62,11,17,64,45,57,53,52,13,11,58,38,36,26,10,1
"18",1288571,"NAYARIT",0,0,1,0,0,0,0,0,0,0,0,0,0,0,0,0,1,0,0,0,0,0,0,0,0,0,0,0,0,0,1,1,1,0,0,0,0,0,0,0,0,0,0,0,0,0,0,0,0,1,1,0,0,0,0,0,1,0,0,1,0,0,0,1,0,0,1,0,0,1,0,0,0,0,0,1,3,1,2,0,1,2,1,5,3,6,10,12,10,8,15,9,14,9,6,9,3,14,9,10,9,4,3,4,12,12,13,10,7,10,3,17,12,12,8,18,20,19,30,20,18,18,12,17,15,22,18,30,31,23,7,12,17,32,25,21,20,27,8,28,14,26,41,26,17,6,19,23,15,19,31,16,18,38,35,27,21,33,12,11,26,20,32,31,32,19,8,42,33,29,30,36,17,14,27,43,36,37,28,7
"19",5610153,"NUEVO LEON",0,0,0,1,0,0,0,0,0,0,0,0,0,3,1,3,4,0,2,2,10,6,3,6,3,2,3,3,3,2,2,0,0,0,1,1,1,4,3,0,2,6,3,3,5,1,2,1,3,1,1,0,2,3,0,2,4,0,3,8,3,2,8,12,6,7,4,3,3,9,7,9,25,39,14,6,26,43,35,47,42,30,33,62,95,97,54,73,40,37,75,70,95,75,85,47,30,95,109,99,232,343,277,219,182,302,265,222,157,56,58,123,64,48,65,73,106,85,170,181,203,144,129,101,106,226,231,143,149,171,181,181,218,267,295,291,195,188,115,290,311,311,353,394,172,168,390,506,452,466,421,220,69,331,361,421,466,460,230,164,355,423,443,402,357,150,170,396,428,322,267,246,130,58,82,130,105,123,97,1
"20",4143593,"OAXACA",0,0,0,1,0,0,0,0,0,0,0,0,1,0,1,0,0,0,0,0,0,0,1,1,1,0,0,0,0,0,0,0,0,0,1,0,0,0,0,0,0,0,0,2,1,0,0,0,0,0,0,0,0,0,0,0,0,1,1,1,0,1,0,2,1,0,1,0,0,1,1,3,2,2,3,1,3,5,5,7,1,2,4,7,11,20,16,31,6,13,10,19,23,44,23,12,6,15,12,14,6,8,15,6,19,11,10,6,15,6,6,12,7,7,11,20,16,6,15,17,19,18,8,21,15,13,20,11,19,17,19,18,33,37,45,22,30,33,24,95,86,60,61,42,23,22,79,43,35,56,101,28,15,52,87,64,72,65,46,49,62,86,66,40,69,37,19,50,84,79,79,74,18,13,33,15,30,41,21,0
"21",6604451,"PUEBLA",0,0,1,0,0,0,0,3,0,0,0,0,0,2,0,0,1,1,0,0,0,1,0,0,2,0,0,0,2,0,0,0,0,0,0,0,1,0,1,0,0,0,0,0,0,0,0,1,0,0,0,0,1,0,0,1,0,1,1,4,0,2,1,0,1,0,0,1,0,0,2,12,5,10,5,4,4,17,25,25,34,16,7,26,35,40,38,24,10,21,63,32,27,35,41,18,25,50,47,57,27,17,10,24,70,53,41,34,41,18,17,51,27,29,41,45,31,20,60,52,46,58,26,24,26,64,44,54,73,88,70,23,56,92,79,119,129,50,35,168,129,174,163,142,114,53,203,210,202,254,265,92,26,216,228,203,198,222,87,49,326,303,353,336,268,144,42,251,225,231,164,188,62,40,276,290,305,67,11,13
"22",2279637,"QUERETARO",0,0,0,0,0,0,0,0,0,0,0,0,0,0,0,0,0,0,1,0,0,0,0,0,0,0,0,0,0,0,0,0,0,0,0,0,0,0,0,0,0,0,0,0,0,1,0,0,0,0,0,0,0,0,0,0,0,0,0,1,0,0,0,2,1,0,0,0,0,0,0,2,1,7,4,3,4,2,9,13,6,16,4,17,19,16,29,20,15,9,22,37,27,20,19,3,6,22,17,14,5,21,14,11,25,17,18,11,9,10,9,19,16,9,10,15,8,7,23,19,12,15,12,9,6,16,15,9,13,22,10,18,18,32,50,49,42,38,28,68,61,43,58,45,24,19,36,51,52,60,27,14,11,33,30,32,21,33,20,14,26,37,36,25,35,16,17,34,24,25,45,41,18,15,35,39,34,32,23,2
"23",1723259,"QUINTANA ROO",0,0,0,1,0,1,0,2,1,0,1,0,0,0,1,1,1,1,0,0,1,0,1,2,0,0,2,0,2,2,2,0,0,0,0,2,4,3,2,0,1,3,0,2,0,0,0,0,0,1,1,4,0,0,0,0,1,0,1,3,0,0,3,1,0,2,3,0,1,2,1,2,3,4,3,6,11,11,12,13,6,6,6,12,19,23,26,22,7,6,35,27,17,21,17,8,14,16,22,16,15,13,11,6,23,13,16,16,9,16,9,14,16,10,9,18,15,6,17,14,19,19,8,6,9,16,25,23,36,19,17,16,25,26,28,38,30,14,12,43,26,25,30,34,20,19,31,23,30,31,48,31,16,43,27,40,44,38,27,20,48,47,53,40,73,19,34,25,52,63,66,45,15,21,66,86,83,68,46,0
"24",2866142,"SAN LUIS POTOSI",0,0,0,0,0,0,0,0,0,0,0,0,0,0,0,0,0,0,0,0,1,1,1,1,1,0,0,0,0,0,2,2,0,2,0,2,1,1,2,0,0,1,4,0,0,0,0,1,0,1,0,1,0,0,0,0,1,1,0,1,0,0,0,0,5,1,0,0,0,0,2,1,3,3,2,13,5,9,2,8,11,14,13,25,39,40,39,54,29,29,40,45,62,53,32,29,19,32,43,57,31,25,29,24,54,55,29,31,36,27,28,39,41,33,62,63,22,28,52,55,51,60,43,27,33,51,41,83,64,103,34,28,89,99,98,78,108,52,32,92,95,81,60,67,58,45,124,120,140,70,101,44,67,139,100,105,102,90,46,44,117,150,144,143,142,70,59,166,178,130,178,143,82,53,121,133,122,77,119,0
"25",3156674,"SINALOA",0,0,1,0,0,0,0,0,0,0,0,0,1,0,1,1,1,0,0,0,0,0,0,1,1,0,0,1,0,0,0,1,0,0,0,7,4,4,0,0,0,2,3,4,3,4,0,0,2,1,4,1,1,0,1,0,2,1,0,2,1,0,2,0,1,2,1,0,1,2,3,0,3,2,3,4,3,6,13,10,11,5,6,22,37,34,30,37,11,18,39,24,43,36,38,50,14,40,25,42,19,28,24,8,60,38,45,31,36,14,21,34,19,22,25,48,18,21,44,55,30,94,66,48,20,97,86,90,93,84,37,27,68,99,58,83,81,37,33,100,67,81,68,79,31,54,90,72,68,85,76,32,38,96,85,95,90,130,55,35,111,125,108,146,115,35,39,64,97,126,81,99,54,15,49,21,8,2,0,0
"26",3074745,"SONORA",0,0,0,1,0,1,2,0,1,0,0,1,0,0,4,3,0,1,0,0,0,1,0,3,0,0,0,1,2,3,4,0,1,0,0,2,1,2,1,0,0,0,3,0,1,0,1,0,1,1,1,1,0,1,1,1,0,1,1,0,0,0,2,1,1,1,1,0,1,2,1,0,2,2,0,1,2,9,13,8,7,6,3,10,22,28,21,23,17,13,40,32,34,28,22,15,12,28,28,36,16,25,12,7,38,30,36,31,35,23,25,35,35,41,30,39,16,23,33,26,41,47,25,21,24,49,38,48,58,93,40,20,88,72,90,75,97,34,29,62,69,78,84,75,49,62,78,94,98,98,71,55,35,93,113,92,80,111,62,52,124,92,82,108,78,58,27,88,65,61,55,71,14,6,29,26,11,1,0,0
"27",2572287,"TABASCO",0,0,0,0,0,0,1,0,0,0,0,0,0,0,1,0,0,0,0,0,0,0,0,0,0,0,0,1,0,0,0,0,0,0,0,0,0,0,0,0,0,2,0,1,0,0,0,0,1,1,0,0,0,0,0,1,0,0,0,0,0,0,2,2,1,1,0,1,0,0,1,2,0,2,0,1,2,1,1,9,6,7,11,18,6,17,35,27,21,8,44,47,36,25,35,19,20,30,30,26,9,8,7,8,17,32,22,31,47,22,52,35,50,66,76,82,38,24,68,35,78,59,32,30,55,78,83,76,96,107,75,45,94,90,89,129,144,79,59,134,141,176,173,189,106,85,182,201,198,228,233,88,72,229,223,254,276,254,148,105,277,243,324,237,185,110,76,305,225,287,325,285,151,99,271,239,202,68,4,0
"28",3650602,"TAMAULIPAS",0,1,1,0,0,0,0,1,0,1,0,0,0,0,2,2,1,0,1,1,1,1,1,1,4,2,0,1,2,0,0,1,0,0,0,0,0,2,0,0,0,3,1,2,0,1,0,0,1,0,1,0,0,0,0,0,0,1,2,1,0,0,0,2,0,1,2,0,2,0,3,0,2,2,0,2,0,5,3,6,3,5,10,11,12,11,22,14,5,11,19,22,33,24,24,10,14,24,32,47,15,40,11,22,66,64,72,64,69,72,37,107,49,90,90,100,47,47,144,130,129,147,88,61,48,87,112,87,112,83,52,31,125,128,148,236,270,98,21,255,309,199,151,247,134,129,234,213,225,168,196,151,188,285,308,288,204,269,94,72,220,284,302,253,345,127,147,379,437,300,232,178,63,32,120,55,33,6,7,0
"29",1380011,"TLAXCALA",0,0,0,0,0,0,0,0,0,0,0,0,0,0,0,0,1,1,0,0,1,0,0,0,0,0,1,1,0,0,0,0,0,0,0,0,0,1,1,0,0,2,1,0,0,0,0,0,0,0,0,0,0,0,0,0,0,0,0,0,0,0,0,0,0,1,1,0,0,1,2,0,2,1,1,0,1,0,3,8,6,3,4,8,6,5,14,19,7,7,19,13,21,15,13,4,8,17,17,16,27,19,8,6,49,47,18,10,30,15,2,21,22,17,23,24,26,9,40,46,17,38,10,30,11,25,29,41,26,35,34,18,27,37,58,61,70,30,13,49,51,73,105,97,31,13,51,60,54,67,74,28,21,49,49,70,75,60,37,12,63,46,100,82,60,18,30,77,70,54,44,47,42,13,70,70,29,9,1,0
"30",8539862,"VERACRUZ",0,0,0,0,0,1,2,2,1,1,2,0,1,2,1,1,3,3,0,0,3,1,1,3,6,2,5,3,3,2,5,0,0,0,0,1,1,4,3,1,1,6,3,1,3,4,2,2,0,3,4,3,2,1,0,4,3,1,2,6,3,4,1,6,2,5,5,0,2,3,2,2,3,9,5,2,6,28,18,15,19,6,2,17,40,46,60,40,19,15,57,63,48,58,43,15,9,52,50,52,23,24,25,13,58,62,52,37,52,23,27,78,72,60,71,62,36,20,60,49,60,47,39,25,37,49,42,54,45,64,29,24,73,60,71,55,61,40,33,86,74,79,87,65,61,29,63,80,75,79,51,43,40,94,81,113,117,95,66,56,106,143,114,97,101,48,54,118,126,129,132,92,60,35,112,78,47,21,1,1
"31",2259098,"YUCATAN",0,1,0,0,0,0,0,0,0,1,0,0,0,0,0,0,0,0,0,0,2,1,0,2,0,0,0,0,1,0,0,0,0,0,0,1,0,2,0,0,0,0,2,0,0,0,0,0,0,0,1,0,1,0,0,0,0,0,1,0,0,1,3,4,2,6,0,1,0,1,1,0,5,2,0,7,5,5,11,13,21,9,11,27,26,15,11,16,18,16,28,23,33,40,31,21,15,27,29,31,17,21,18,17,46,38,29,24,40,23,44,44,34,35,49,41,21,9,96,57,100,61,31,20,44,72,66,65,77,54,24,41,69,58,84,65,63,30,28,76,71,71,64,65,24,39,77,77,101,58,97,44,41,68,44,47,23,19,34,46,83,66,75,105,84,55,54,113,76,80,92,112,39,34,123,86,109,90,47,7
"32",1666426,"ZACATECAS",0,1,0,0,0,0,0,0,0,0,0,0,0,0,1,0,0,0,0,1,0,0,0,0,0,0,0,0,0,0,0,0,0,0,0,0,0,0,0,0,1,2,1,0,0,1,0,0,0,0,0,0,0,0,0,1,0,0,0,0,0,0,1,0,2,0,0,0,0,0,2,2,3,2,0,1,1,3,7,3,7,7,6,10,26,17,12,9,1,5,10,11,7,29,12,14,6,10,12,22,5,7,5,2,13,13,13,10,7,26,10,22,22,28,23,23,12,37,39,25,19,10,18,11,7,37,23,13,36,35,17,5,34,20,31,26,31,23,10,42,22,30,14,25,6,11,20,42,22,24,32,6,7,22,17,27,30,49,8,10,31,48,25,43,79,39,24,65,91,60,43,51,25,11,45,49,37,30,23,0
"000",127792286,"Nacional",0,5,16,18,6,14,28,28,15,44,39,5,20,36,51,59,43,42,16,21,65,52,56,46,46,15,34,43,50,30,39,32,8,12,14,51,45,45,28,8,16,71,49,40,36,32,9,17,28,30,30,23,26,12,9,32,32,39,41,63,24,27,77,75,67,65,53,24,31,78,98,108,176,223,113,135,197,364,406,481,471,331,265,706,964,1093,1051,1248,608,600,1359,1212,1260,1385,1385,851,580,1448,1521,1645,1220,1428,966,760,1940,2027,1890,1763,1970,876,796,2180,1959,1905,2107,2356,1187,941,2487,2609,2941,3303,1696,1446,1504,3406,2920,3392,3381,3721,1924,1325,3874,4059,3800,4130,4214,2037,1233,4445,4058,4349,4188,4500,2067,1622,4744,4673,4848,4587,4787,2466,1708,5115,4998,5305,5180,5515,2502,1701,5437,5753,5774,5729,5962,2376,1864,6178,5894,5656,5293,5218,2205,1254,4447,4289,3137,1966,1018,57
