cve_ent,poblacion,nombre,29-01-2020,30-01-2020,31-01-2020,01-02-2020,02-02-2020,03-02-2020,04-02-2020,05-02-2020,06-02-2020,07-02-2020,08-02-2020,09-02-2020,10-02-2020,11-02-2020,12-02-2020,13-02-2020,14-02-2020,15-02-2020,16-02-2020,17-02-2020,18-02-2020,19-02-2020,20-02-2020,21-02-2020,22-02-2020,23-02-2020,24-02-2020,25-02-2020,26-02-2020,27-02-2020,28-02-2020,29-02-2020,01-03-2020,02-03-2020,03-03-2020,04-03-2020,05-03-2020,06-03-2020,07-03-2020,08-03-2020,09-03-2020,10-03-2020,11-03-2020,12-03-2020,13-03-2020,14-03-2020,15-03-2020,16-03-2020,17-03-2020,18-03-2020,19-03-2020,20-03-2020,21-03-2020,22-03-2020,23-03-2020,24-03-2020,25-03-2020,26-03-2020,27-03-2020,28-03-2020,29-03-2020,30-03-2020,31-03-2020,01-04-2020,02-04-2020,03-04-2020,04-04-2020,05-04-2020,06-04-2020,07-04-2020,08-04-2020,09-04-2020,10-04-2020,11-04-2020,12-04-2020,13-04-2020,14-04-2020,15-04-2020,16-04-2020,17-04-2020,18-04-2020,19-04-2020,20-04-2020,21-04-2020,22-04-2020,23-04-2020,24-04-2020,25-04-2020,26-04-2020,27-04-2020,28-04-2020,29-04-2020,30-04-2020,01-05-2020,02-05-2020,03-05-2020,04-05-2020,05-05-2020,06-05-2020,07-05-2020,08-05-2020,09-05-2020,10-05-2020,11-05-2020,12-05-2020,13-05-2020,14-05-2020,15-05-2020,16-05-2020,17-05-2020,18-05-2020,19-05-2020,20-05-2020,21-05-2020,22-05-2020,23-05-2020,24-05-2020,25-05-2020,26-05-2020,27-05-2020,28-05-2020,29-05-2020,30-05-2020,31-05-2020,01-06-2020,02-06-2020,03-06-2020,04-06-2020,05-06-2020,06-06-2020,07-06-2020,08-06-2020,09-06-2020,10-06-2020,11-06-2020,12-06-2020,13-06-2020,14-06-2020,15-06-2020,16-06-2020,17-06-2020,18-06-2020,19-06-2020,20-06-2020,21-06-2020,22-06-2020,23-06-2020,24-06-2020,25-06-2020,26-06-2020,27-06-2020,28-06-2020
"01",1434635,"AGUASCALIENTES",0,0,0,0,0,0,0,0,0,0,0,0,0,0,0,0,0,0,0,0,0,0,0,0,0,0,0,0,0,0,0,0,0,0,0,0,0,0,0,0,0,0,0,0,0,0,0,0,0,0,0,0,0,0,0,0,0,0,0,0,0,0,0,0,0,0,0,0,0,0,0,0,0,0,0,0,0,0,0,0,0,0,0,0,0,0,0,0,0,0,0,0,0,0,0,0,0,1,1,1,0,0,0,0,1,0,1,0,0,0,0,1,1,1,0,0,0,0,0,1,0,1,0,0,2,2,0,0,0,1,0,0,0,0,3,0,1,1,2,0,0,1,0,2,0,2,11,13,81,82,25,6
"02",3634868,"BAJA CALIFORNIA",0,0,0,0,0,0,0,0,0,0,0,0,0,0,0,0,0,0,0,0,0,0,0,0,0,0,0,0,0,0,0,0,0,0,0,0,0,0,0,0,0,0,0,0,0,0,0,0,0,0,0,0,0,0,0,0,0,0,0,0,0,0,0,0,1,0,0,0,0,0,0,0,1,1,0,0,0,1,0,1,0,2,0,0,2,2,0,1,2,0,1,1,1,1,0,0,4,5,16,9,3,2,1,3,2,4,6,9,1,0,5,3,9,55,27,4,15,5,9,10,9,13,3,6,11,22,15,13,14,7,7,16,25,37,21,19,11,6,21,25,54,72,95,42,27,121,147,148,171,197,106,6
"03",804708,"BAJA CALIFORNIA SUR",0,0,0,0,0,0,0,0,0,0,0,0,0,0,0,0,0,0,0,0,0,0,0,0,0,0,0,0,0,0,0,0,0,0,0,0,0,0,0,0,0,0,0,0,0,0,0,0,0,0,0,0,0,0,0,0,0,0,0,0,0,0,0,0,0,0,0,0,0,0,0,0,0,0,0,0,0,0,0,0,0,0,0,0,0,0,0,0,0,0,0,0,2,0,0,0,1,0,0,1,1,0,0,0,2,0,0,0,0,0,0,1,0,1,0,0,0,0,2,0,0,0,0,0,2,0,0,2,2,1,0,3,3,1,1,2,1,0,1,3,0,0,3,2,1,13,20,64,32,35,88,7
"04",1000617,"CAMPECHE",0,0,0,0,0,0,0,0,0,0,0,0,0,0,0,0,0,0,0,0,0,0,0,0,0,0,0,0,0,0,0,0,0,0,0,0,0,0,0,0,0,0,0,0,0,0,0,0,0,0,0,0,0,0,0,0,0,0,0,0,0,0,0,0,0,0,0,0,0,0,0,0,0,0,0,0,0,0,0,0,0,0,0,0,0,0,0,0,0,0,0,0,0,0,0,0,0,0,0,0,0,1,0,0,0,0,3,0,0,0,0,0,0,1,1,0,0,0,1,3,3,0,0,1,1,1,0,1,3,1,1,0,1,1,3,1,1,1,5,4,2,2,3,5,12,76,64,65,76,59,19,9
"07",5730367,"CHIAPAS",0,0,0,0,0,0,0,0,0,0,0,0,0,0,0,0,0,0,0,0,0,0,0,0,0,0,0,0,0,0,0,0,0,0,0,0,0,0,0,0,0,0,0,0,0,0,0,0,0,0,0,0,0,0,0,0,0,0,0,0,0,0,0,0,0,0,0,0,0,0,0,0,0,0,0,0,0,0,0,0,0,0,0,0,0,0,0,0,0,0,0,0,0,0,0,0,2,1,1,1,0,0,0,5,2,2,2,4,4,4,8,2,4,1,4,4,3,4,9,6,6,3,8,8,10,10,8,7,7,5,8,11,16,27,16,15,8,9,42,28,42,45,14,6,14,38,35,69,73,75,33,10
"08",3801487,"CHIHUAHUA",0,0,0,0,0,0,0,0,0,0,0,0,0,0,0,0,0,0,0,0,0,0,0,0,0,0,0,0,0,0,0,0,0,0,0,0,0,0,0,0,0,0,0,0,0,0,0,0,0,0,0,0,0,0,0,0,0,0,0,0,0,0,0,0,0,1,0,0,0,0,0,0,0,3,1,2,1,5,6,5,2,9,10,7,5,5,7,8,3,6,8,8,7,9,7,7,5,23,18,13,14,9,14,8,18,16,10,12,7,7,10,16,12,16,18,18,4,13,16,20,16,14,7,14,20,27,21,12,19,3,7,19,30,22,19,12,6,6,22,15,18,18,26,26,17,29,59,102,85,105,11,5
"09",9018645,"DISTRITO FEDERAL",0,0,0,0,0,0,0,0,0,0,0,0,0,0,0,0,0,0,0,0,0,0,0,0,0,0,0,0,0,0,0,0,0,0,0,0,0,0,0,0,1,0,0,0,0,0,0,0,0,0,0,0,0,0,0,1,1,0,0,0,0,0,2,0,0,0,0,2,1,2,3,3,3,2,5,8,5,7,2,7,8,8,13,13,15,14,9,10,4,15,16,13,25,20,22,21,30,45,45,36,55,41,34,82,81,61,93,84,51,47,101,106,109,87,106,93,82,139,146,122,108,112,84,60,141,123,133,119,128,100,56,125,122,146,125,119,101,72,167,124,152,166,156,140,86,197,251,498,1066,1553,593,237
"05",3218720,"COAHUILA",0,0,0,0,0,0,0,0,0,0,0,0,0,0,0,0,0,0,0,0,0,0,0,0,0,0,0,0,0,0,0,0,0,0,0,0,0,0,0,0,0,0,0,0,0,0,0,0,0,0,0,0,0,0,0,0,0,0,0,0,0,0,0,0,0,0,0,0,0,0,0,0,0,0,0,0,2,0,0,0,0,0,1,1,0,0,0,0,0,0,0,0,0,1,1,1,0,3,1,5,11,2,1,2,6,8,16,21,16,7,28,19,15,16,22,15,1,24,25,19,24,71,23,8,35,63,35,33,28,15,9,76,63,62,71,78,29,15,97,105,88,108,128,80,34,225,372,358,549,595,181,46
"06",785153,"COLIMA",0,0,0,0,0,0,0,0,0,0,0,0,0,0,0,0,0,0,0,0,0,0,0,0,0,0,0,0,0,0,0,0,0,0,0,0,0,0,0,0,0,0,0,0,0,0,0,0,0,0,0,0,0,0,0,0,0,0,0,0,0,0,0,0,0,0,0,0,0,0,0,0,0,0,0,0,0,0,0,0,0,0,0,0,0,0,0,0,0,0,0,0,0,0,0,0,0,0,0,0,0,0,0,0,0,0,0,0,0,0,0,1,0,0,1,1,1,0,0,0,0,0,0,0,0,0,0,0,0,0,0,0,0,0,0,0,0,1,0,1,0,0,2,0,2,17,7,4,10,21,18,16
"10",1868996,"DURANGO",0,0,0,0,0,0,0,0,0,0,0,0,0,0,0,0,0,0,0,0,0,0,0,0,0,0,0,0,0,0,0,0,0,0,0,0,0,0,0,0,0,0,0,0,0,0,0,0,0,0,0,0,0,0,0,0,0,0,0,0,0,0,0,0,0,0,0,0,0,0,0,0,0,0,0,0,0,0,0,0,0,0,0,0,0,0,0,0,2,0,0,0,0,0,0,0,0,0,0,1,2,0,0,0,1,3,9,5,2,0,10,4,1,8,1,3,2,4,4,4,2,10,2,2,3,3,8,11,6,3,2,15,9,13,17,19,12,1,18,13,12,17,11,6,3,26,21,85,145,335,148,18
"11",6228175,"GUANAJUATO",0,0,0,0,0,0,0,0,0,0,0,0,0,0,0,0,0,0,0,0,0,0,0,0,0,0,0,0,0,0,0,0,0,0,0,0,0,0,0,0,0,0,0,0,0,0,0,0,0,0,0,0,0,0,0,0,0,0,0,0,0,0,0,0,0,0,0,0,0,0,0,0,0,0,0,0,0,0,0,0,0,0,0,0,1,2,0,0,0,1,0,0,0,0,0,1,0,0,1,0,2,1,0,11,4,2,2,12,1,1,16,12,14,5,27,8,4,4,7,2,11,2,8,4,11,9,10,13,15,10,5,9,6,8,7,23,8,3,22,15,21,24,97,28,35,130,210,342,496,725,352,39
"12",3657048,"GUERRERO",0,0,0,0,0,0,0,0,0,0,0,0,0,0,0,0,0,0,0,0,0,0,0,0,0,0,0,0,0,0,0,0,0,0,0,0,0,0,0,0,0,0,0,0,0,0,0,0,0,0,0,0,0,0,0,0,0,0,0,0,0,0,0,0,0,0,0,0,0,0,0,0,0,0,0,0,0,0,0,0,0,0,0,0,0,0,0,0,0,0,0,1,1,2,1,0,2,37,7,10,1,1,0,6,11,17,7,8,4,4,8,9,5,16,12,6,2,10,18,31,17,13,7,6,7,32,19,24,19,12,2,18,13,17,12,20,13,7,20,9,12,15,21,9,16,25,46,93,161,123,62,5
"13",3086414,"HIDALGO",0,0,0,0,0,0,0,0,0,0,0,0,0,0,0,0,0,0,0,0,0,0,0,0,0,0,0,0,0,0,0,0,0,0,0,0,0,0,0,0,0,0,0,0,0,0,0,0,0,0,0,0,0,0,0,0,0,0,0,0,0,0,0,0,0,0,0,0,0,0,0,0,0,0,0,0,0,0,0,0,0,0,0,0,0,0,0,0,0,0,0,0,1,0,0,1,2,2,0,1,0,0,0,0,1,0,0,1,0,1,2,1,3,3,3,2,1,2,5,4,1,3,0,0,0,5,3,6,4,1,1,6,3,4,4,9,4,3,4,3,2,10,10,2,6,8,11,21,42,57,43,11
"14",8409693,"JALISCO",0,0,0,0,0,0,0,0,0,0,0,0,0,0,0,0,0,0,0,0,0,0,0,0,0,0,0,0,0,0,0,0,0,0,0,0,0,0,0,0,0,0,0,0,0,0,0,0,0,0,0,0,0,0,0,0,0,0,0,0,0,0,0,0,0,0,0,0,0,0,0,0,0,0,0,0,0,0,0,0,0,0,0,0,1,0,1,0,0,0,1,0,2,1,1,0,2,9,6,5,1,2,2,4,9,6,4,7,4,2,8,22,9,4,7,7,1,10,7,19,16,21,13,10,8,16,12,19,13,12,6,27,24,30,24,24,26,5,35,43,51,71,63,28,42,73,105,212,220,294,199,33
"15",17427790,"MEXICO",0,0,0,0,0,0,0,0,0,0,0,0,0,0,0,0,0,0,0,0,0,0,0,0,0,0,0,0,0,0,0,0,0,0,0,0,0,0,0,0,0,0,0,0,0,0,0,0,0,0,0,0,0,0,0,0,1,1,0,0,2,0,0,1,0,0,0,2,1,4,4,1,4,1,3,2,5,1,2,5,4,4,7,9,10,24,20,6,9,26,27,11,13,8,9,12,29,41,60,38,52,41,24,63,54,55,68,89,49,44,86,86,103,97,137,66,61,84,124,100,85,91,53,44,157,154,164,141,222,88,72,200,211,223,220,222,74,91,272,248,181,316,318,158,122,357,560,1001,1094,1161,340,87
"16",4825401,"MICHOACAN",0,0,0,0,0,0,0,0,0,0,0,0,0,0,0,0,0,0,0,0,0,0,0,0,0,0,0,0,0,0,0,0,0,0,0,0,0,0,0,0,0,0,0,0,0,0,0,0,0,0,0,0,0,0,0,0,0,0,0,0,0,0,0,0,0,0,0,0,0,0,0,0,0,0,0,0,0,0,0,0,0,0,0,0,1,0,0,0,0,0,0,1,0,0,0,0,0,1,1,2,0,0,1,1,2,2,1,1,3,2,4,1,2,3,2,1,2,3,2,2,0,1,2,0,8,9,8,2,5,4,11,11,23,9,15,34,34,7,14,16,19,27,65,28,18,140,278,491,423,402,149,59
"17",2044058,"MORELOS",0,0,0,0,0,0,0,0,0,0,0,0,0,0,0,0,0,0,0,0,0,0,0,0,0,0,0,0,0,0,0,0,0,0,0,0,0,0,0,0,0,0,0,0,0,0,0,0,0,0,0,0,0,0,0,0,0,0,0,0,0,0,0,0,0,0,0,0,0,0,0,0,1,0,0,0,0,0,1,0,0,1,1,1,1,1,0,0,0,0,0,0,1,0,0,0,2,2,0,1,1,1,1,2,2,2,3,4,0,1,2,2,3,9,11,7,3,7,5,2,5,2,2,1,6,3,5,3,2,1,0,2,1,0,3,2,2,3,3,13,5,5,5,5,4,24,31,46,27,43,19,8
"18",1288571,"NAYARIT",0,0,0,0,0,0,0,0,0,0,0,0,0,0,0,0,0,0,0,0,0,0,0,0,0,0,0,0,0,0,0,0,0,0,0,0,0,0,0,0,0,0,0,0,0,0,0,0,0,0,0,0,0,0,0,0,0,0,0,0,0,0,0,0,0,0,0,0,0,0,0,0,0,0,0,0,0,0,0,0,0,0,0,0,0,0,0,0,0,0,0,0,0,0,0,0,2,0,0,1,1,0,0,1,0,0,1,0,1,0,1,0,0,0,1,0,0,1,1,0,1,2,1,0,0,1,1,0,2,1,0,0,3,2,2,3,0,2,2,4,1,2,4,1,3,19,6,8,11,28,29,10
"19",5610153,"NUEVO LEON",0,0,0,0,0,0,0,0,0,0,0,0,0,0,0,0,0,0,0,0,0,0,0,0,0,0,0,0,0,0,0,0,0,0,0,0,0,0,0,0,0,0,0,0,0,0,0,0,0,0,0,0,0,0,0,1,0,0,1,0,0,0,0,0,0,0,0,0,0,0,0,0,1,0,0,0,0,0,0,0,1,0,0,0,0,1,0,0,0,0,0,1,1,0,0,0,1,5,7,7,4,1,1,6,2,6,10,5,3,1,11,6,4,3,1,3,3,9,3,6,2,10,3,2,14,8,11,12,11,7,5,19,30,25,29,92,19,14,106,107,50,44,81,127,66,304,418,318,439,414,358,77
"20",4143593,"OAXACA",0,1,0,0,0,0,0,0,0,0,0,0,0,0,0,0,0,0,0,0,0,0,0,0,0,0,0,0,0,0,0,0,0,0,0,0,0,0,0,0,0,0,0,0,0,0,0,0,0,0,0,0,0,0,0,0,0,0,1,0,0,0,0,0,0,0,0,0,0,0,0,0,0,0,0,0,0,0,0,0,0,0,0,0,0,0,0,0,0,7,7,0,0,0,3,0,1,0,0,1,0,0,2,2,2,2,2,3,1,0,4,7,9,5,2,2,2,8,4,13,4,4,0,5,3,40,10,24,30,77,3,27,2,17,26,18,6,10,14,17,26,20,42,25,19,62,65,54,75,83,107,20
"21",6604451,"PUEBLA",0,0,0,0,0,0,0,0,0,0,0,0,0,0,0,0,0,0,0,0,0,0,0,0,0,0,0,0,0,0,0,0,0,0,0,0,0,0,0,0,0,0,0,0,0,0,0,0,0,0,0,1,0,0,0,0,0,0,1,3,1,5,6,8,7,10,1,0,0,0,0,0,0,1,0,0,0,0,0,0,0,0,2,0,0,0,2,1,1,0,0,2,0,0,1,2,1,8,15,10,25,16,5,11,10,6,2,10,2,5,12,10,10,45,27,12,7,27,12,19,20,18,34,6,31,23,21,27,30,29,11,72,81,79,40,32,45,35,72,63,70,77,91,90,39,194,205,276,762,675,294,31
"22",2279637,"QUERETARO",0,0,0,0,0,0,0,0,0,1,0,0,0,0,0,0,0,0,0,0,0,0,0,0,0,0,0,0,0,0,0,0,0,0,0,0,0,0,0,0,0,0,0,0,0,0,0,0,0,0,0,0,0,0,0,0,0,0,0,0,0,0,0,0,0,0,0,0,0,0,0,0,0,0,0,0,0,0,0,0,0,0,0,0,0,0,0,0,0,0,1,0,0,0,0,0,0,0,2,0,1,1,0,0,0,1,0,2,2,0,2,4,2,3,2,1,2,0,1,1,3,1,0,0,2,3,3,1,0,0,2,2,1,1,5,3,1,1,0,5,5,3,5,4,3,3,6,16,9,17,31,8
"23",1723259,"QUINTANA ROO",0,0,0,0,0,0,0,0,0,0,0,0,0,0,0,0,0,0,0,0,0,0,0,0,0,0,0,0,0,0,0,0,0,0,0,0,0,0,0,0,0,0,0,0,0,0,0,0,0,0,0,0,0,0,0,0,0,0,0,0,0,0,0,1,0,0,0,0,0,0,0,0,0,0,0,0,0,0,0,0,0,0,0,0,0,0,0,0,0,1,1,0,0,0,2,0,0,1,1,3,3,2,1,1,1,1,2,3,0,0,4,1,3,0,3,2,0,1,4,1,2,0,1,1,2,2,1,2,0,2,0,3,3,3,1,5,6,0,9,5,8,3,4,3,4,4,7,25,62,158,67,20
"24",2866142,"SAN LUIS POTOSI",0,0,0,0,0,0,0,0,0,0,0,0,0,0,0,0,0,0,0,0,0,0,0,0,0,0,0,0,0,0,0,0,0,0,0,0,0,0,0,0,0,0,0,0,0,0,0,0,0,0,0,0,0,0,0,0,0,0,0,0,0,0,0,0,0,0,0,0,0,0,0,0,0,0,0,0,0,0,0,0,0,0,0,0,0,0,0,0,0,0,0,0,0,0,1,0,0,0,0,0,1,0,1,0,0,1,0,0,0,0,0,3,0,0,1,0,1,0,0,0,1,0,2,0,3,3,1,1,2,2,5,3,2,2,1,0,4,2,1,6,5,14,3,4,8,14,30,56,57,90,178,7
"25",3156674,"SINALOA",0,0,0,0,0,0,0,0,0,0,0,0,0,0,0,0,0,0,0,0,0,0,0,0,0,0,0,0,0,0,0,0,0,0,0,0,0,0,0,0,0,0,0,0,0,0,0,0,0,0,0,0,0,0,0,0,0,0,0,0,0,0,0,0,0,0,0,0,0,0,0,0,0,0,0,0,0,0,0,1,0,0,0,0,1,0,1,1,2,5,1,3,1,2,0,0,3,7,3,5,8,1,4,7,6,7,0,4,5,4,7,12,12,10,6,12,7,12,12,8,14,8,7,5,31,9,13,12,17,17,9,11,15,25,10,20,9,8,52,25,19,34,44,50,46,191,285,298,220,260,91,21
"26",3074745,"SONORA",0,0,0,0,0,0,0,0,0,0,0,0,0,0,0,0,0,0,0,0,0,0,0,0,0,0,0,0,0,0,0,0,0,0,0,0,0,0,0,0,0,0,0,0,0,0,0,0,0,0,0,0,0,0,0,0,0,0,0,0,0,0,0,0,0,0,0,0,0,3,4,1,2,0,0,1,1,0,6,4,0,2,2,0,3,1,1,0,0,4,0,0,5,0,0,1,5,5,6,8,3,10,5,15,27,19,27,30,14,6,38,48,42,55,53,35,12,58,80,52,49,30,32,20,50,59,62,73,89,45,62,104,142,105,112,88,56,83,160,170,190,194,209,178,196,304,327,347,441,327,157,22
"27",2572287,"TABASCO",0,0,0,0,0,0,0,0,0,0,0,0,0,0,0,0,0,0,0,0,0,0,0,0,0,0,0,0,0,0,0,0,0,0,0,0,0,0,0,0,0,0,0,0,0,0,0,0,0,0,0,0,0,0,0,0,0,0,0,0,0,0,0,0,1,0,0,0,0,0,0,0,0,0,0,0,0,0,0,0,0,0,0,0,0,0,0,0,0,0,0,0,0,0,0,1,0,1,0,0,0,0,0,0,0,0,0,0,0,0,1,1,0,0,0,0,1,1,2,1,2,1,1,1,4,14,12,9,14,14,9,17,10,21,10,17,2,4,15,32,18,31,39,28,15,54,63,142,477,449,334,82
"28",3650602,"TAMAULIPAS",0,0,0,0,0,0,0,0,0,0,0,0,0,0,0,0,0,0,0,0,0,0,0,0,0,0,0,0,0,0,0,0,0,0,0,0,0,0,0,0,0,0,0,0,0,0,0,0,0,0,0,0,0,0,0,0,0,0,0,0,0,0,0,0,0,1,0,0,0,0,0,0,0,0,0,0,0,0,0,0,0,0,0,1,0,0,0,0,0,0,1,0,1,0,0,0,3,3,11,10,9,2,0,6,9,2,3,12,2,1,21,42,18,15,10,19,19,12,8,13,7,34,3,2,12,20,21,13,17,6,7,34,23,42,17,32,18,15,79,36,36,54,68,85,42,188,296,434,462,493,186,57
"29",1380011,"TLAXCALA",0,0,0,0,0,0,0,0,0,0,0,0,0,0,0,0,0,0,0,0,0,0,0,0,0,0,0,0,0,0,0,0,0,0,0,0,0,0,0,0,0,0,0,0,0,0,0,0,0,0,0,0,0,0,0,0,0,0,0,0,0,0,0,0,0,0,0,0,0,0,1,0,0,0,0,0,0,0,0,1,0,0,0,0,1,0,0,0,0,0,0,1,0,0,0,1,1,0,1,0,1,1,3,0,3,4,2,0,2,0,2,1,1,11,9,3,3,13,2,10,3,38,7,4,4,4,3,10,0,1,6,8,9,19,7,10,7,1,13,18,15,12,15,11,8,19,19,51,113,133,46,4
"30",8539862,"VERACRUZ",0,0,0,0,0,0,0,0,0,0,0,0,0,0,0,0,0,0,0,0,0,0,0,0,0,0,0,0,0,0,0,0,0,0,0,0,0,0,0,0,0,0,0,0,0,0,0,0,0,0,0,0,0,0,0,0,0,0,0,0,0,0,0,0,0,0,0,0,0,0,1,0,0,0,0,0,0,0,0,0,0,0,1,0,0,0,0,1,0,0,1,1,0,0,1,2,1,6,7,12,7,7,2,16,17,23,19,16,16,6,29,13,17,15,21,10,5,21,11,7,10,10,12,1,9,8,9,12,15,8,2,13,11,13,13,13,4,10,26,30,12,30,32,43,34,78,160,254,343,387,171,65
"31",2259098,"YUCATAN",0,0,0,0,0,0,0,0,0,0,0,0,0,0,0,0,0,0,0,0,0,0,0,0,0,0,0,0,0,0,0,0,0,0,0,0,0,0,0,0,0,0,0,0,0,1,0,0,0,0,0,0,0,0,0,0,0,0,0,0,0,0,0,0,0,0,1,0,0,0,0,0,0,0,0,0,0,0,0,0,0,0,0,0,0,0,0,0,0,0,0,0,0,0,0,0,1,0,0,0,0,0,0,0,0,1,0,0,1,0,1,1,1,1,1,0,0,0,1,0,1,1,0,0,1,0,0,0,0,0,4,3,1,5,3,0,2,5,6,2,4,3,9,5,8,7,15,19,40,56,111,20
"32",1666426,"ZACATECAS",0,0,0,0,0,0,0,0,0,0,0,0,0,0,0,0,0,0,0,0,0,0,0,0,0,0,0,0,0,0,0,0,0,0,0,0,0,0,0,0,0,0,0,0,0,0,0,0,0,0,0,0,0,0,0,0,0,0,0,0,0,0,0,0,0,0,0,0,0,0,0,0,0,0,0,0,0,0,0,0,0,0,0,0,0,0,0,0,0,0,0,0,0,0,0,0,0,0,0,0,1,0,0,0,0,0,0,2,2,1,1,0,0,2,0,0,0,0,1,0,1,1,0,0,0,0,1,0,0,0,0,1,0,0,0,0,0,0,0,1,0,2,0,4,2,5,2,3,22,44,20,9
"000",127792286,"Nacional",0,1,0,0,0,0,0,0,0,1,0,0,0,0,0,0,0,0,0,0,0,0,0,0,0,0,0,0,0,0,0,0,0,0,0,0,0,0,0,0,1,0,0,0,0,1,0,0,0,0,0,1,0,0,0,2,2,1,3,3,3,5,8,10,9,12,2,4,2,9,13,5,12,8,9,13,14,14,17,24,15,26,37,32,41,50,41,28,23,65,65,43,61,44,49,50,98,206,210,181,207,142,102,252,273,251,293,344,193,144,422,435,409,488,516,334,244,472,522,476,423,515,315,211,588,673,610,602,714,473,312,855,883,959,837,932,510,421,1300,1186,1118,1420,1663,1225,932,2947,4132,5913,8284,9476,4566,1055
